%YAML 1.1
%TAG !u! tag:unity3d.com,2011:
--- !u!74 &7400000
AnimationClip:
  m_ObjectHideFlags: 0
  m_CorrespondingSourceObject: {fileID: 0}
  m_PrefabInstance: {fileID: 0}
  m_PrefabAsset: {fileID: 0}
  m_Name: explosion_1
  serializedVersion: 6
  m_Legacy: 0
  m_Compressed: 0
  m_UseHighQualityCurve: 1
  m_RotationCurves: []
  m_CompressedRotationCurves: []
  m_EulerCurves: []
  m_PositionCurves: []
  m_ScaleCurves: []
  m_FloatCurves: []
  m_PPtrCurves:
  - curve:
    - time: 0
      value: {fileID: -1825377748142952397, guid: 5d7976dbfa8e5e64b8f60aaf4bec09f7,
        type: 3}
    - time: 0.033333335
      value: {fileID: -4964768207018580729, guid: 5d7976dbfa8e5e64b8f60aaf4bec09f7,
        type: 3}
    - time: 0.06666667
      value: {fileID: -5425866703919492768, guid: 5d7976dbfa8e5e64b8f60aaf4bec09f7,
        type: 3}
    - time: 0.1
      value: {fileID: -87144321088541702, guid: 5d7976dbfa8e5e64b8f60aaf4bec09f7,
        type: 3}
    - time: 0.13333334
      value: {fileID: -1803618446504437182, guid: 5d7976dbfa8e5e64b8f60aaf4bec09f7,
        type: 3}
    - time: 0.16666667
      value: {fileID: -7316774105421473409, guid: 5d7976dbfa8e5e64b8f60aaf4bec09f7,
        type: 3}
    - time: 0.2
      value: {fileID: -5643090062227097164, guid: 5d7976dbfa8e5e64b8f60aaf4bec09f7,
        type: 3}
    - time: 0.23333333
      value: {fileID: 6399964230986765341, guid: 5d7976dbfa8e5e64b8f60aaf4bec09f7,
        type: 3}
    - time: 0.26666668
      value: {fileID: -5028545232732479627, guid: 5d7976dbfa8e5e64b8f60aaf4bec09f7,
        type: 3}
    - time: 0.3
      value: {fileID: -2572051974409430178, guid: 5d7976dbfa8e5e64b8f60aaf4bec09f7,
        type: 3}
    - time: 0.33333334
      value: {fileID: -3082158348796825527, guid: 5d7976dbfa8e5e64b8f60aaf4bec09f7,
        type: 3}
    - time: 0.36666667
      value: {fileID: -6172563693728976420, guid: 5d7976dbfa8e5e64b8f60aaf4bec09f7,
        type: 3}
    - time: 0.4
      value: {fileID: -2139953807471466130, guid: 5d7976dbfa8e5e64b8f60aaf4bec09f7,
        type: 3}
    - time: 0.43333334
      value: {fileID: -3809824399505615546, guid: 5d7976dbfa8e5e64b8f60aaf4bec09f7,
        type: 3}
    - time: 0.46666667
      value: {fileID: 1276600262647970248, guid: 5d7976dbfa8e5e64b8f60aaf4bec09f7,
        type: 3}
    - time: 0.5
      value: {fileID: 7904657123856509677, guid: 5d7976dbfa8e5e64b8f60aaf4bec09f7,
        type: 3}
    - time: 0.53333336
      value: {fileID: 5105432242625059400, guid: 5d7976dbfa8e5e64b8f60aaf4bec09f7,
        type: 3}
    - time: 0.56666666
      value: {fileID: 2745229182845655126, guid: 5d7976dbfa8e5e64b8f60aaf4bec09f7,
        type: 3}
    - time: 0.6
      value: {fileID: -6592003898941069806, guid: 5d7976dbfa8e5e64b8f60aaf4bec09f7,
        type: 3}
    - time: 0.6333333
      value: {fileID: -4999148532541465052, guid: 5d7976dbfa8e5e64b8f60aaf4bec09f7,
        type: 3}
    attribute: m_Sprite
    path: 
    classID: 212
    script: {fileID: 0}
  m_SampleRate: 30
  m_WrapMode: 0
  m_Bounds:
    m_Center: {x: 0, y: 0, z: 0}
    m_Extent: {x: 0, y: 0, z: 0}
  m_ClipBindingConstant:
    genericBindings:
    - serializedVersion: 2
      path: 0
      attribute: 0
      script: {fileID: 0}
      typeID: 212
      customType: 23
      isPPtrCurve: 1
    pptrCurveMapping:
    - {fileID: -1825377748142952397, guid: 5d7976dbfa8e5e64b8f60aaf4bec09f7, type: 3}
    - {fileID: -4964768207018580729, guid: 5d7976dbfa8e5e64b8f60aaf4bec09f7, type: 3}
    - {fileID: -5425866703919492768, guid: 5d7976dbfa8e5e64b8f60aaf4bec09f7, type: 3}
    - {fileID: -87144321088541702, guid: 5d7976dbfa8e5e64b8f60aaf4bec09f7, type: 3}
    - {fileID: -1803618446504437182, guid: 5d7976dbfa8e5e64b8f60aaf4bec09f7, type: 3}
    - {fileID: -7316774105421473409, guid: 5d7976dbfa8e5e64b8f60aaf4bec09f7, type: 3}
    - {fileID: -5643090062227097164, guid: 5d7976dbfa8e5e64b8f60aaf4bec09f7, type: 3}
    - {fileID: 6399964230986765341, guid: 5d7976dbfa8e5e64b8f60aaf4bec09f7, type: 3}
    - {fileID: -5028545232732479627, guid: 5d7976dbfa8e5e64b8f60aaf4bec09f7, type: 3}
    - {fileID: -2572051974409430178, guid: 5d7976dbfa8e5e64b8f60aaf4bec09f7, type: 3}
    - {fileID: -3082158348796825527, guid: 5d7976dbfa8e5e64b8f60aaf4bec09f7, type: 3}
    - {fileID: -6172563693728976420, guid: 5d7976dbfa8e5e64b8f60aaf4bec09f7, type: 3}
    - {fileID: -2139953807471466130, guid: 5d7976dbfa8e5e64b8f60aaf4bec09f7, type: 3}
    - {fileID: -3809824399505615546, guid: 5d7976dbfa8e5e64b8f60aaf4bec09f7, type: 3}
    - {fileID: 1276600262647970248, guid: 5d7976dbfa8e5e64b8f60aaf4bec09f7, type: 3}
    - {fileID: 7904657123856509677, guid: 5d7976dbfa8e5e64b8f60aaf4bec09f7, type: 3}
    - {fileID: 5105432242625059400, guid: 5d7976dbfa8e5e64b8f60aaf4bec09f7, type: 3}
    - {fileID: 2745229182845655126, guid: 5d7976dbfa8e5e64b8f60aaf4bec09f7, type: 3}
    - {fileID: -6592003898941069806, guid: 5d7976dbfa8e5e64b8f60aaf4bec09f7, type: 3}
    - {fileID: -4999148532541465052, guid: 5d7976dbfa8e5e64b8f60aaf4bec09f7, type: 3}
  m_AnimationClipSettings:
    serializedVersion: 2
    m_AdditiveReferencePoseClip: {fileID: 0}
    m_AdditiveReferencePoseTime: 0
    m_StartTime: 0
    m_StopTime: 0.6666667
    m_OrientationOffsetY: 0
    m_Level: 0
    m_CycleOffset: 0
    m_HasAdditiveReferencePose: 0
    m_LoopTime: 0
    m_LoopBlend: 0
    m_LoopBlendOrientation: 0
    m_LoopBlendPositionY: 0
    m_LoopBlendPositionXZ: 0
    m_KeepOriginalOrientation: 0
    m_KeepOriginalPositionY: 1
    m_KeepOriginalPositionXZ: 0
    m_HeightFromFeet: 0
    m_Mirror: 0
  m_EditorCurves: []
  m_EulerEditorCurves: []
  m_HasGenericRootTransform: 0
  m_HasMotionFloatCurves: 0
  m_Events: []
